<?xml version="1.0" encoding="utf-8" standalone="no"?>
<!DOCTYPE svg PUBLIC "-//W3C//DTD SVG 1.1//EN"
  "http://www.w3.org/Graphics/SVG/1.1/DTD/svg11.dtd">
<!-- Created with matplotlib (https://matplotlib.org/) -->
<svg height="345.6pt" version="1.1" viewBox="0 0 460.8 345.6" width="460.8pt" xmlns="http://www.w3.org/2000/svg" xmlns:xlink="http://www.w3.org/1999/xlink">
 <metadata>
  <rdf:RDF xmlns:cc="http://creativecommons.org/ns#" xmlns:dc="http://purl.org/dc/elements/1.1/" xmlns:rdf="http://www.w3.org/1999/02/22-rdf-syntax-ns#">
   <cc:Work>
    <dc:type rdf:resource="http://purl.org/dc/dcmitype/StillImage"/>
    <dc:date>2021-10-19T11:09:59.428038</dc:date>
    <dc:format>image/svg+xml</dc:format>
    <dc:creator>
     <cc:Agent>
      <dc:title>Matplotlib v3.3.3, https://matplotlib.org/</dc:title>
     </cc:Agent>
    </dc:creator>
   </cc:Work>
  </rdf:RDF>
 </metadata>
 <defs>
  <style type="text/css">*{stroke-linecap:butt;stroke-linejoin:round;}</style>
 </defs>
 <g id="figure_1">
  <g id="patch_1">
   <path d="M 0 345.6 
L 460.8 345.6 
L 460.8 0 
L 0 0 
z
" style="fill:#ffffff;"/>
  </g>
  <g id="axes_1">
   <g id="patch_2">
    <path d="M 75.35 284.2 
L 443.52 284.2 
L 443.52 17.28 
L 75.35 17.28 
z
" style="fill:#ffffff;"/>
   </g>
   <g id="matplotlib.axis_1">
    <g id="xtick_1">
     <g id="line2d_1">
      <defs>
       <path d="M 0 0 
L 0 3.5 
" id="me28b3c102b" style="stroke:#000000;stroke-width:0.8;"/>
      </defs>
      <g>
       <use style="stroke:#000000;stroke-width:0.8;" x="92.085" xlink:href="#me28b3c102b" y="284.2"/>
      </g>
     </g>
     <g id="text_1">
      <!-- 2000 -->
      <g transform="translate(71.725 303.3575)scale(0.16 -0.16)">
       <defs>
        <path d="M 19.1875 8.296875 
L 53.609375 8.296875 
L 53.609375 0 
L 7.328125 0 
L 7.328125 8.296875 
Q 12.9375 14.109375 22.625 23.890625 
Q 32.328125 33.6875 34.8125 36.53125 
Q 39.546875 41.84375 41.421875 45.53125 
Q 43.3125 49.21875 43.3125 52.78125 
Q 43.3125 58.59375 39.234375 62.25 
Q 35.15625 65.921875 28.609375 65.921875 
Q 23.96875 65.921875 18.8125 64.3125 
Q 13.671875 62.703125 7.8125 59.421875 
L 7.8125 69.390625 
Q 13.765625 71.78125 18.9375 73 
Q 24.125 74.21875 28.421875 74.21875 
Q 39.75 74.21875 46.484375 68.546875 
Q 53.21875 62.890625 53.21875 53.421875 
Q 53.21875 48.921875 51.53125 44.890625 
Q 49.859375 40.875 45.40625 35.40625 
Q 44.1875 33.984375 37.640625 27.21875 
Q 31.109375 20.453125 19.1875 8.296875 
z
" id="DejaVuSans-50"/>
        <path d="M 31.78125 66.40625 
Q 24.171875 66.40625 20.328125 58.90625 
Q 16.5 51.421875 16.5 36.375 
Q 16.5 21.390625 20.328125 13.890625 
Q 24.171875 6.390625 31.78125 6.390625 
Q 39.453125 6.390625 43.28125 13.890625 
Q 47.125 21.390625 47.125 36.375 
Q 47.125 51.421875 43.28125 58.90625 
Q 39.453125 66.40625 31.78125 66.40625 
z
M 31.78125 74.21875 
Q 44.046875 74.21875 50.515625 64.515625 
Q 56.984375 54.828125 56.984375 36.375 
Q 56.984375 17.96875 50.515625 8.265625 
Q 44.046875 -1.421875 31.78125 -1.421875 
Q 19.53125 -1.421875 13.0625 8.265625 
Q 6.59375 17.96875 6.59375 36.375 
Q 6.59375 54.828125 13.0625 64.515625 
Q 19.53125 74.21875 31.78125 74.21875 
z
" id="DejaVuSans-48"/>
       </defs>
       <use xlink:href="#DejaVuSans-50"/>
       <use x="63.623047" xlink:href="#DejaVuSans-48"/>
       <use x="127.246094" xlink:href="#DejaVuSans-48"/>
       <use x="190.869141" xlink:href="#DejaVuSans-48"/>
      </g>
     </g>
    </g>
    <g id="xtick_2">
     <g id="line2d_2">
      <g>
       <use style="stroke:#000000;stroke-width:0.8;" x="154.2096" xlink:href="#me28b3c102b" y="284.2"/>
      </g>
     </g>
     <g id="text_2">
      <!-- 2004 -->
      <g transform="translate(133.8496 303.3575)scale(0.16 -0.16)">
       <defs>
        <path d="M 37.796875 64.3125 
L 12.890625 25.390625 
L 37.796875 25.390625 
z
M 35.203125 72.90625 
L 47.609375 72.90625 
L 47.609375 25.390625 
L 58.015625 25.390625 
L 58.015625 17.1875 
L 47.609375 17.1875 
L 47.609375 0 
L 37.796875 0 
L 37.796875 17.1875 
L 4.890625 17.1875 
L 4.890625 26.703125 
z
" id="DejaVuSans-52"/>
       </defs>
       <use xlink:href="#DejaVuSans-50"/>
       <use x="63.623047" xlink:href="#DejaVuSans-48"/>
       <use x="127.246094" xlink:href="#DejaVuSans-48"/>
       <use x="190.869141" xlink:href="#DejaVuSans-52"/>
      </g>
     </g>
    </g>
    <g id="xtick_3">
     <g id="line2d_3">
      <g>
       <use style="stroke:#000000;stroke-width:0.8;" x="216.036954" xlink:href="#me28b3c102b" y="284.2"/>
      </g>
     </g>
     <g id="text_3">
      <!-- 2008 -->
      <g transform="translate(195.676954 303.3575)scale(0.16 -0.16)">
       <defs>
        <path d="M 31.78125 34.625 
Q 24.75 34.625 20.71875 30.859375 
Q 16.703125 27.09375 16.703125 20.515625 
Q 16.703125 13.921875 20.71875 10.15625 
Q 24.75 6.390625 31.78125 6.390625 
Q 38.8125 6.390625 42.859375 10.171875 
Q 46.921875 13.96875 46.921875 20.515625 
Q 46.921875 27.09375 42.890625 30.859375 
Q 38.875 34.625 31.78125 34.625 
z
M 21.921875 38.8125 
Q 15.578125 40.375 12.03125 44.71875 
Q 8.5 49.078125 8.5 55.328125 
Q 8.5 64.0625 14.71875 69.140625 
Q 20.953125 74.21875 31.78125 74.21875 
Q 42.671875 74.21875 48.875 69.140625 
Q 55.078125 64.0625 55.078125 55.328125 
Q 55.078125 49.078125 51.53125 44.71875 
Q 48 40.375 41.703125 38.8125 
Q 48.828125 37.15625 52.796875 32.3125 
Q 56.78125 27.484375 56.78125 20.515625 
Q 56.78125 9.90625 50.3125 4.234375 
Q 43.84375 -1.421875 31.78125 -1.421875 
Q 19.734375 -1.421875 13.25 4.234375 
Q 6.78125 9.90625 6.78125 20.515625 
Q 6.78125 27.484375 10.78125 32.3125 
Q 14.796875 37.15625 21.921875 38.8125 
z
M 18.3125 54.390625 
Q 18.3125 48.734375 21.84375 45.5625 
Q 25.390625 42.390625 31.78125 42.390625 
Q 38.140625 42.390625 41.71875 45.5625 
Q 45.3125 48.734375 45.3125 54.390625 
Q 45.3125 60.0625 41.71875 63.234375 
Q 38.140625 66.40625 31.78125 66.40625 
Q 25.390625 66.40625 21.84375 63.234375 
Q 18.3125 60.0625 18.3125 54.390625 
z
" id="DejaVuSans-56"/>
       </defs>
       <use xlink:href="#DejaVuSans-50"/>
       <use x="63.623047" xlink:href="#DejaVuSans-48"/>
       <use x="127.246094" xlink:href="#DejaVuSans-48"/>
       <use x="190.869141" xlink:href="#DejaVuSans-56"/>
      </g>
     </g>
    </g>
    <g id="xtick_4">
     <g id="line2d_4">
      <g>
       <use style="stroke:#000000;stroke-width:0.8;" x="278.161554" xlink:href="#me28b3c102b" y="284.2"/>
      </g>
     </g>
     <g id="text_4">
      <!-- 2012 -->
      <g transform="translate(257.801554 303.3575)scale(0.16 -0.16)">
       <defs>
        <path d="M 12.40625 8.296875 
L 28.515625 8.296875 
L 28.515625 63.921875 
L 10.984375 60.40625 
L 10.984375 69.390625 
L 28.421875 72.90625 
L 38.28125 72.90625 
L 38.28125 8.296875 
L 54.390625 8.296875 
L 54.390625 0 
L 12.40625 0 
z
" id="DejaVuSans-49"/>
       </defs>
       <use xlink:href="#DejaVuSans-50"/>
       <use x="63.623047" xlink:href="#DejaVuSans-48"/>
       <use x="127.246094" xlink:href="#DejaVuSans-49"/>
       <use x="190.869141" xlink:href="#DejaVuSans-50"/>
      </g>
     </g>
    </g>
    <g id="xtick_5">
     <g id="line2d_5">
      <g>
       <use style="stroke:#000000;stroke-width:0.8;" x="340.286155" xlink:href="#me28b3c102b" y="284.2"/>
      </g>
     </g>
     <g id="text_5">
      <!-- 2016 -->
      <g transform="translate(319.926155 303.3575)scale(0.16 -0.16)">
       <defs>
        <path d="M 33.015625 40.375 
Q 26.375 40.375 22.484375 35.828125 
Q 18.609375 31.296875 18.609375 23.390625 
Q 18.609375 15.53125 22.484375 10.953125 
Q 26.375 6.390625 33.015625 6.390625 
Q 39.65625 6.390625 43.53125 10.953125 
Q 47.40625 15.53125 47.40625 23.390625 
Q 47.40625 31.296875 43.53125 35.828125 
Q 39.65625 40.375 33.015625 40.375 
z
M 52.59375 71.296875 
L 52.59375 62.3125 
Q 48.875 64.0625 45.09375 64.984375 
Q 41.3125 65.921875 37.59375 65.921875 
Q 27.828125 65.921875 22.671875 59.328125 
Q 17.53125 52.734375 16.796875 39.40625 
Q 19.671875 43.65625 24.015625 45.921875 
Q 28.375 48.1875 33.59375 48.1875 
Q 44.578125 48.1875 50.953125 41.515625 
Q 57.328125 34.859375 57.328125 23.390625 
Q 57.328125 12.15625 50.6875 5.359375 
Q 44.046875 -1.421875 33.015625 -1.421875 
Q 20.359375 -1.421875 13.671875 8.265625 
Q 6.984375 17.96875 6.984375 36.375 
Q 6.984375 53.65625 15.1875 63.9375 
Q 23.390625 74.21875 37.203125 74.21875 
Q 40.921875 74.21875 44.703125 73.484375 
Q 48.484375 72.75 52.59375 71.296875 
z
" id="DejaVuSans-54"/>
       </defs>
       <use xlink:href="#DejaVuSans-50"/>
       <use x="63.623047" xlink:href="#DejaVuSans-48"/>
       <use x="127.246094" xlink:href="#DejaVuSans-49"/>
       <use x="190.869141" xlink:href="#DejaVuSans-54"/>
      </g>
     </g>
    </g>
    <g id="xtick_6">
     <g id="line2d_6">
      <g>
       <use style="stroke:#000000;stroke-width:0.8;" x="402.410755" xlink:href="#me28b3c102b" y="284.2"/>
      </g>
     </g>
     <g id="text_6">
      <!-- 2020 -->
      <g transform="translate(382.050755 303.3575)scale(0.16 -0.16)">
       <use xlink:href="#DejaVuSans-50"/>
       <use x="63.623047" xlink:href="#DejaVuSans-48"/>
       <use x="127.246094" xlink:href="#DejaVuSans-50"/>
       <use x="190.869141" xlink:href="#DejaVuSans-48"/>
      </g>
     </g>
    </g>
    <g id="text_7">
     <!-- date -->
     <g transform="translate(241.395 322.8425)scale(0.16 -0.16)">
      <defs>
       <path d="M 45.40625 46.390625 
L 45.40625 75.984375 
L 54.390625 75.984375 
L 54.390625 0 
L 45.40625 0 
L 45.40625 8.203125 
Q 42.578125 3.328125 38.25 0.953125 
Q 33.9375 -1.421875 27.875 -1.421875 
Q 17.96875 -1.421875 11.734375 6.484375 
Q 5.515625 14.40625 5.515625 27.296875 
Q 5.515625 40.1875 11.734375 48.09375 
Q 17.96875 56 27.875 56 
Q 33.9375 56 38.25 53.625 
Q 42.578125 51.265625 45.40625 46.390625 
z
M 14.796875 27.296875 
Q 14.796875 17.390625 18.875 11.75 
Q 22.953125 6.109375 30.078125 6.109375 
Q 37.203125 6.109375 41.296875 11.75 
Q 45.40625 17.390625 45.40625 27.296875 
Q 45.40625 37.203125 41.296875 42.84375 
Q 37.203125 48.484375 30.078125 48.484375 
Q 22.953125 48.484375 18.875 42.84375 
Q 14.796875 37.203125 14.796875 27.296875 
z
" id="DejaVuSans-100"/>
       <path d="M 34.28125 27.484375 
Q 23.390625 27.484375 19.1875 25 
Q 14.984375 22.515625 14.984375 16.5 
Q 14.984375 11.71875 18.140625 8.90625 
Q 21.296875 6.109375 26.703125 6.109375 
Q 34.1875 6.109375 38.703125 11.40625 
Q 43.21875 16.703125 43.21875 25.484375 
L 43.21875 27.484375 
z
M 52.203125 31.203125 
L 52.203125 0 
L 43.21875 0 
L 43.21875 8.296875 
Q 40.140625 3.328125 35.546875 0.953125 
Q 30.953125 -1.421875 24.3125 -1.421875 
Q 15.921875 -1.421875 10.953125 3.296875 
Q 6 8.015625 6 15.921875 
Q 6 25.140625 12.171875 29.828125 
Q 18.359375 34.515625 30.609375 34.515625 
L 43.21875 34.515625 
L 43.21875 35.40625 
Q 43.21875 41.609375 39.140625 45 
Q 35.0625 48.390625 27.6875 48.390625 
Q 23 48.390625 18.546875 47.265625 
Q 14.109375 46.140625 10.015625 43.890625 
L 10.015625 52.203125 
Q 14.9375 54.109375 19.578125 55.046875 
Q 24.21875 56 28.609375 56 
Q 40.484375 56 46.34375 49.84375 
Q 52.203125 43.703125 52.203125 31.203125 
z
" id="DejaVuSans-97"/>
       <path d="M 18.3125 70.21875 
L 18.3125 54.6875 
L 36.8125 54.6875 
L 36.8125 47.703125 
L 18.3125 47.703125 
L 18.3125 18.015625 
Q 18.3125 11.328125 20.140625 9.421875 
Q 21.96875 7.515625 27.59375 7.515625 
L 36.8125 7.515625 
L 36.8125 0 
L 27.59375 0 
Q 17.1875 0 13.234375 3.875 
Q 9.28125 7.765625 9.28125 18.015625 
L 9.28125 47.703125 
L 2.6875 47.703125 
L 2.6875 54.6875 
L 9.28125 54.6875 
L 9.28125 70.21875 
z
" id="DejaVuSans-116"/>
       <path d="M 56.203125 29.59375 
L 56.203125 25.203125 
L 14.890625 25.203125 
Q 15.484375 15.921875 20.484375 11.0625 
Q 25.484375 6.203125 34.421875 6.203125 
Q 39.59375 6.203125 44.453125 7.46875 
Q 49.3125 8.734375 54.109375 11.28125 
L 54.109375 2.78125 
Q 49.265625 0.734375 44.1875 -0.34375 
Q 39.109375 -1.421875 33.890625 -1.421875 
Q 20.796875 -1.421875 13.15625 6.1875 
Q 5.515625 13.8125 5.515625 26.8125 
Q 5.515625 40.234375 12.765625 48.109375 
Q 20.015625 56 32.328125 56 
Q 43.359375 56 49.78125 48.890625 
Q 56.203125 41.796875 56.203125 29.59375 
z
M 47.21875 32.234375 
Q 47.125 39.59375 43.09375 43.984375 
Q 39.0625 48.390625 32.421875 48.390625 
Q 24.90625 48.390625 20.390625 44.140625 
Q 15.875 39.890625 15.1875 32.171875 
z
" id="DejaVuSans-101"/>
      </defs>
      <use xlink:href="#DejaVuSans-100"/>
      <use x="63.476562" xlink:href="#DejaVuSans-97"/>
      <use x="124.755859" xlink:href="#DejaVuSans-116"/>
      <use x="163.964844" xlink:href="#DejaVuSans-101"/>
     </g>
    </g>
   </g>
   <g id="matplotlib.axis_2">
    <g id="ytick_1">
     <g id="line2d_7">
      <defs>
       <path d="M 0 0 
L -3.5 0 
" id="me209865af4" style="stroke:#000000;stroke-width:0.8;"/>
      </defs>
      <g>
       <use style="stroke:#000000;stroke-width:0.8;" x="75.35" xlink:href="#me209865af4" y="272.067273"/>
      </g>
     </g>
     <g id="text_8">
      <!-- 300 -->
      <g transform="translate(37.81 278.146023)scale(0.16 -0.16)">
       <defs>
        <path d="M 40.578125 39.3125 
Q 47.65625 37.796875 51.625 33 
Q 55.609375 28.21875 55.609375 21.1875 
Q 55.609375 10.40625 48.1875 4.484375 
Q 40.765625 -1.421875 27.09375 -1.421875 
Q 22.515625 -1.421875 17.65625 -0.515625 
Q 12.796875 0.390625 7.625 2.203125 
L 7.625 11.71875 
Q 11.71875 9.328125 16.59375 8.109375 
Q 21.484375 6.890625 26.8125 6.890625 
Q 36.078125 6.890625 40.9375 10.546875 
Q 45.796875 14.203125 45.796875 21.1875 
Q 45.796875 27.640625 41.28125 31.265625 
Q 36.765625 34.90625 28.71875 34.90625 
L 20.21875 34.90625 
L 20.21875 43.015625 
L 29.109375 43.015625 
Q 36.375 43.015625 40.234375 45.921875 
Q 44.09375 48.828125 44.09375 54.296875 
Q 44.09375 59.90625 40.109375 62.90625 
Q 36.140625 65.921875 28.71875 65.921875 
Q 24.65625 65.921875 20.015625 65.03125 
Q 15.375 64.15625 9.8125 62.3125 
L 9.8125 71.09375 
Q 15.4375 72.65625 20.34375 73.4375 
Q 25.25 74.21875 29.59375 74.21875 
Q 40.828125 74.21875 47.359375 69.109375 
Q 53.90625 64.015625 53.90625 55.328125 
Q 53.90625 49.265625 50.4375 45.09375 
Q 46.96875 40.921875 40.578125 39.3125 
z
" id="DejaVuSans-51"/>
       </defs>
       <use xlink:href="#DejaVuSans-51"/>
       <use x="63.623047" xlink:href="#DejaVuSans-48"/>
       <use x="127.246094" xlink:href="#DejaVuSans-48"/>
      </g>
     </g>
    </g>
    <g id="ytick_2">
     <g id="line2d_8">
      <g>
       <use style="stroke:#000000;stroke-width:0.8;" x="75.35" xlink:href="#me209865af4" y="228.890307"/>
      </g>
     </g>
     <g id="text_9">
      <!-- 350 -->
      <g transform="translate(37.81 234.969057)scale(0.16 -0.16)">
       <defs>
        <path d="M 10.796875 72.90625 
L 49.515625 72.90625 
L 49.515625 64.59375 
L 19.828125 64.59375 
L 19.828125 46.734375 
Q 21.96875 47.46875 24.109375 47.828125 
Q 26.265625 48.1875 28.421875 48.1875 
Q 40.625 48.1875 47.75 41.5 
Q 54.890625 34.8125 54.890625 23.390625 
Q 54.890625 11.625 47.5625 5.09375 
Q 40.234375 -1.421875 26.90625 -1.421875 
Q 22.3125 -1.421875 17.546875 -0.640625 
Q 12.796875 0.140625 7.71875 1.703125 
L 7.71875 11.625 
Q 12.109375 9.234375 16.796875 8.0625 
Q 21.484375 6.890625 26.703125 6.890625 
Q 35.15625 6.890625 40.078125 11.328125 
Q 45.015625 15.765625 45.015625 23.390625 
Q 45.015625 31 40.078125 35.4375 
Q 35.15625 39.890625 26.703125 39.890625 
Q 22.75 39.890625 18.8125 39.015625 
Q 14.890625 38.140625 10.796875 36.28125 
z
" id="DejaVuSans-53"/>
       </defs>
       <use xlink:href="#DejaVuSans-51"/>
       <use x="63.623047" xlink:href="#DejaVuSans-53"/>
       <use x="127.246094" xlink:href="#DejaVuSans-48"/>
      </g>
     </g>
    </g>
    <g id="ytick_3">
     <g id="line2d_9">
      <g>
       <use style="stroke:#000000;stroke-width:0.8;" x="75.35" xlink:href="#me209865af4" y="185.713342"/>
      </g>
     </g>
     <g id="text_10">
      <!-- 400 -->
      <g transform="translate(37.81 191.792092)scale(0.16 -0.16)">
       <use xlink:href="#DejaVuSans-52"/>
       <use x="63.623047" xlink:href="#DejaVuSans-48"/>
       <use x="127.246094" xlink:href="#DejaVuSans-48"/>
      </g>
     </g>
    </g>
    <g id="ytick_4">
     <g id="line2d_10">
      <g>
       <use style="stroke:#000000;stroke-width:0.8;" x="75.35" xlink:href="#me209865af4" y="142.536377"/>
      </g>
     </g>
     <g id="text_11">
      <!-- 450 -->
      <g transform="translate(37.81 148.615127)scale(0.16 -0.16)">
       <use xlink:href="#DejaVuSans-52"/>
       <use x="63.623047" xlink:href="#DejaVuSans-53"/>
       <use x="127.246094" xlink:href="#DejaVuSans-48"/>
      </g>
     </g>
    </g>
    <g id="ytick_5">
     <g id="line2d_11">
      <g>
       <use style="stroke:#000000;stroke-width:0.8;" x="75.35" xlink:href="#me209865af4" y="99.359411"/>
      </g>
     </g>
     <g id="text_12">
      <!-- 500 -->
      <g transform="translate(37.81 105.438161)scale(0.16 -0.16)">
       <use xlink:href="#DejaVuSans-53"/>
       <use x="63.623047" xlink:href="#DejaVuSans-48"/>
       <use x="127.246094" xlink:href="#DejaVuSans-48"/>
      </g>
     </g>
    </g>
    <g id="ytick_6">
     <g id="line2d_12">
      <g>
       <use style="stroke:#000000;stroke-width:0.8;" x="75.35" xlink:href="#me209865af4" y="56.182446"/>
      </g>
     </g>
     <g id="text_13">
      <!-- 550 -->
      <g transform="translate(37.81 62.261196)scale(0.16 -0.16)">
       <use xlink:href="#DejaVuSans-53"/>
       <use x="63.623047" xlink:href="#DejaVuSans-53"/>
       <use x="127.246094" xlink:href="#DejaVuSans-48"/>
      </g>
     </g>
    </g>
    <g id="text_14">
     <!-- mean weekly earning (£) -->
     <g transform="translate(30.4825 250.78)rotate(-90)scale(0.16 -0.16)">
      <defs>
       <path d="M 52 44.1875 
Q 55.375 50.25 60.0625 53.125 
Q 64.75 56 71.09375 56 
Q 79.640625 56 84.28125 50.015625 
Q 88.921875 44.046875 88.921875 33.015625 
L 88.921875 0 
L 79.890625 0 
L 79.890625 32.71875 
Q 79.890625 40.578125 77.09375 44.375 
Q 74.3125 48.1875 68.609375 48.1875 
Q 61.625 48.1875 57.5625 43.546875 
Q 53.515625 38.921875 53.515625 30.90625 
L 53.515625 0 
L 44.484375 0 
L 44.484375 32.71875 
Q 44.484375 40.625 41.703125 44.40625 
Q 38.921875 48.1875 33.109375 48.1875 
Q 26.21875 48.1875 22.15625 43.53125 
Q 18.109375 38.875 18.109375 30.90625 
L 18.109375 0 
L 9.078125 0 
L 9.078125 54.6875 
L 18.109375 54.6875 
L 18.109375 46.1875 
Q 21.1875 51.21875 25.484375 53.609375 
Q 29.78125 56 35.6875 56 
Q 41.65625 56 45.828125 52.96875 
Q 50 49.953125 52 44.1875 
z
" id="DejaVuSans-109"/>
       <path d="M 54.890625 33.015625 
L 54.890625 0 
L 45.90625 0 
L 45.90625 32.71875 
Q 45.90625 40.484375 42.875 44.328125 
Q 39.84375 48.1875 33.796875 48.1875 
Q 26.515625 48.1875 22.3125 43.546875 
Q 18.109375 38.921875 18.109375 30.90625 
L 18.109375 0 
L 9.078125 0 
L 9.078125 54.6875 
L 18.109375 54.6875 
L 18.109375 46.1875 
Q 21.34375 51.125 25.703125 53.5625 
Q 30.078125 56 35.796875 56 
Q 45.21875 56 50.046875 50.171875 
Q 54.890625 44.34375 54.890625 33.015625 
z
" id="DejaVuSans-110"/>
       <path id="DejaVuSans-32"/>
       <path d="M 4.203125 54.6875 
L 13.1875 54.6875 
L 24.421875 12.015625 
L 35.59375 54.6875 
L 46.1875 54.6875 
L 57.421875 12.015625 
L 68.609375 54.6875 
L 77.59375 54.6875 
L 63.28125 0 
L 52.6875 0 
L 40.921875 44.828125 
L 29.109375 0 
L 18.5 0 
z
" id="DejaVuSans-119"/>
       <path d="M 9.078125 75.984375 
L 18.109375 75.984375 
L 18.109375 31.109375 
L 44.921875 54.6875 
L 56.390625 54.6875 
L 27.390625 29.109375 
L 57.625 0 
L 45.90625 0 
L 18.109375 26.703125 
L 18.109375 0 
L 9.078125 0 
z
" id="DejaVuSans-107"/>
       <path d="M 9.421875 75.984375 
L 18.40625 75.984375 
L 18.40625 0 
L 9.421875 0 
z
" id="DejaVuSans-108"/>
       <path d="M 32.171875 -5.078125 
Q 28.375 -14.84375 24.75 -17.8125 
Q 21.140625 -20.796875 15.09375 -20.796875 
L 7.90625 -20.796875 
L 7.90625 -13.28125 
L 13.1875 -13.28125 
Q 16.890625 -13.28125 18.9375 -11.515625 
Q 21 -9.765625 23.484375 -3.21875 
L 25.09375 0.875 
L 2.984375 54.6875 
L 12.5 54.6875 
L 29.59375 11.921875 
L 46.6875 54.6875 
L 56.203125 54.6875 
z
" id="DejaVuSans-121"/>
       <path d="M 41.109375 46.296875 
Q 39.59375 47.171875 37.8125 47.578125 
Q 36.03125 48 33.890625 48 
Q 26.265625 48 22.1875 43.046875 
Q 18.109375 38.09375 18.109375 28.8125 
L 18.109375 0 
L 9.078125 0 
L 9.078125 54.6875 
L 18.109375 54.6875 
L 18.109375 46.1875 
Q 20.953125 51.171875 25.484375 53.578125 
Q 30.03125 56 36.53125 56 
Q 37.453125 56 38.578125 55.875 
Q 39.703125 55.765625 41.0625 55.515625 
z
" id="DejaVuSans-114"/>
       <path d="M 9.421875 54.6875 
L 18.40625 54.6875 
L 18.40625 0 
L 9.421875 0 
z
M 9.421875 75.984375 
L 18.40625 75.984375 
L 18.40625 64.59375 
L 9.421875 64.59375 
z
" id="DejaVuSans-105"/>
       <path d="M 45.40625 27.984375 
Q 45.40625 37.75 41.375 43.109375 
Q 37.359375 48.484375 30.078125 48.484375 
Q 22.859375 48.484375 18.828125 43.109375 
Q 14.796875 37.75 14.796875 27.984375 
Q 14.796875 18.265625 18.828125 12.890625 
Q 22.859375 7.515625 30.078125 7.515625 
Q 37.359375 7.515625 41.375 12.890625 
Q 45.40625 18.265625 45.40625 27.984375 
z
M 54.390625 6.78125 
Q 54.390625 -7.171875 48.1875 -13.984375 
Q 42 -20.796875 29.203125 -20.796875 
Q 24.46875 -20.796875 20.265625 -20.09375 
Q 16.0625 -19.390625 12.109375 -17.921875 
L 12.109375 -9.1875 
Q 16.0625 -11.328125 19.921875 -12.34375 
Q 23.78125 -13.375 27.78125 -13.375 
Q 36.625 -13.375 41.015625 -8.765625 
Q 45.40625 -4.15625 45.40625 5.171875 
L 45.40625 9.625 
Q 42.625 4.78125 38.28125 2.390625 
Q 33.9375 0 27.875 0 
Q 17.828125 0 11.671875 7.65625 
Q 5.515625 15.328125 5.515625 27.984375 
Q 5.515625 40.671875 11.671875 48.328125 
Q 17.828125 56 27.875 56 
Q 33.9375 56 38.28125 53.609375 
Q 42.625 51.21875 45.40625 46.390625 
L 45.40625 54.6875 
L 54.390625 54.6875 
z
" id="DejaVuSans-103"/>
       <path d="M 31 75.875 
Q 24.46875 64.65625 21.28125 53.65625 
Q 18.109375 42.671875 18.109375 31.390625 
Q 18.109375 20.125 21.3125 9.0625 
Q 24.515625 -2 31 -13.1875 
L 23.1875 -13.1875 
Q 15.875 -1.703125 12.234375 9.375 
Q 8.59375 20.453125 8.59375 31.390625 
Q 8.59375 42.28125 12.203125 53.3125 
Q 15.828125 64.359375 23.1875 75.875 
z
" id="DejaVuSans-40"/>
       <path d="M 53.8125 71.296875 
L 53.8125 62.40625 
Q 50.09375 64.40625 46.765625 65.40625 
Q 43.453125 66.40625 40.484375 66.40625 
Q 33.25 66.40625 30.421875 62.625 
Q 27.59375 58.84375 27.59375 48.484375 
L 27.59375 37.984375 
L 46.6875 37.984375 
L 46.6875 31 
L 27.59375 31 
L 27.59375 8.296875 
L 54.78125 8.296875 
L 54.78125 0 
L 6.296875 0 
L 6.296875 8.296875 
L 17.828125 8.296875 
L 17.828125 31 
L 8.109375 31 
L 8.109375 37.984375 
L 17.828125 37.984375 
L 17.828125 49.609375 
Q 17.828125 62.359375 23.046875 68.28125 
Q 28.265625 74.21875 39.59375 74.21875 
Q 42.578125 74.21875 46.265625 73.453125 
Q 49.953125 72.703125 53.8125 71.296875 
z
" id="DejaVuSans-163"/>
       <path d="M 8.015625 75.875 
L 15.828125 75.875 
Q 23.140625 64.359375 26.78125 53.3125 
Q 30.421875 42.28125 30.421875 31.390625 
Q 30.421875 20.453125 26.78125 9.375 
Q 23.140625 -1.703125 15.828125 -13.1875 
L 8.015625 -13.1875 
Q 14.5 -2 17.703125 9.0625 
Q 20.90625 20.125 20.90625 31.390625 
Q 20.90625 42.671875 17.703125 53.65625 
Q 14.5 64.65625 8.015625 75.875 
z
" id="DejaVuSans-41"/>
      </defs>
      <use xlink:href="#DejaVuSans-109"/>
      <use x="97.412109" xlink:href="#DejaVuSans-101"/>
      <use x="158.935547" xlink:href="#DejaVuSans-97"/>
      <use x="220.214844" xlink:href="#DejaVuSans-110"/>
      <use x="283.59375" xlink:href="#DejaVuSans-32"/>
      <use x="315.380859" xlink:href="#DejaVuSans-119"/>
      <use x="397.167969" xlink:href="#DejaVuSans-101"/>
      <use x="458.691406" xlink:href="#DejaVuSans-101"/>
      <use x="520.214844" xlink:href="#DejaVuSans-107"/>
      <use x="578.125" xlink:href="#DejaVuSans-108"/>
      <use x="605.908203" xlink:href="#DejaVuSans-121"/>
      <use x="665.087891" xlink:href="#DejaVuSans-32"/>
      <use x="696.875" xlink:href="#DejaVuSans-101"/>
      <use x="758.398438" xlink:href="#DejaVuSans-97"/>
      <use x="819.677734" xlink:href="#DejaVuSans-114"/>
      <use x="859.041016" xlink:href="#DejaVuSans-110"/>
      <use x="922.419922" xlink:href="#DejaVuSans-105"/>
      <use x="950.203125" xlink:href="#DejaVuSans-110"/>
      <use x="1013.582031" xlink:href="#DejaVuSans-103"/>
      <use x="1077.058594" xlink:href="#DejaVuSans-32"/>
      <use x="1108.845703" xlink:href="#DejaVuSans-40"/>
      <use x="1147.859375" xlink:href="#DejaVuSans-163"/>
      <use x="1211.482422" xlink:href="#DejaVuSans-41"/>
     </g>
    </g>
   </g>
   <g id="line2d_13">
    <defs>
     <path d="M 0 1.5 
C 0.397805 1.5 0.77937 1.341951 1.06066 1.06066 
C 1.341951 0.77937 1.5 0.397805 1.5 0 
C 1.5 -0.397805 1.341951 -0.77937 1.06066 -1.06066 
C 0.77937 -1.341951 0.397805 -1.5 0 -1.5 
C -0.397805 -1.5 -0.77937 -1.341951 -1.06066 -1.06066 
C -1.341951 -0.77937 -1.5 -0.397805 -1.5 0 
C -1.5 0.397805 -1.341951 0.77937 -1.06066 1.06066 
C -0.77937 1.341951 -0.397805 1.5 0 1.5 
z
" id="m16fce7408a" style="stroke:#1f77b4;"/>
    </defs>
    <g clip-path="url(#pcdc85a3af4)">
     <use style="fill:#1f77b4;stroke:#1f77b4;" x="92.085" xlink:href="#m16fce7408a" y="266.022498"/>
     <use style="fill:#1f77b4;stroke:#1f77b4;" x="93.273988" xlink:href="#m16fce7408a" y="272.067273"/>
     <use style="fill:#1f77b4;stroke:#1f77b4;" x="94.760222" xlink:href="#m16fce7408a" y="263.43188"/>
     <use style="fill:#1f77b4;stroke:#1f77b4;" x="95.94921" xlink:href="#m16fce7408a" y="263.43188"/>
     <use style="fill:#1f77b4;stroke:#1f77b4;" x="97.138197" xlink:href="#m16fce7408a" y="261.704801"/>
     <use style="fill:#1f77b4;stroke:#1f77b4;" x="98.624432" xlink:href="#m16fce7408a" y="262.56834"/>
     <use style="fill:#1f77b4;stroke:#1f77b4;" x="99.813419" xlink:href="#m16fce7408a" y="259.977722"/>
     <use style="fill:#1f77b4;stroke:#1f77b4;" x="101.002407" xlink:href="#m16fce7408a" y="259.114183"/>
     <use style="fill:#1f77b4;stroke:#1f77b4;" x="102.488641" xlink:href="#m16fce7408a" y="257.387104"/>
     <use style="fill:#1f77b4;stroke:#1f77b4;" x="103.677629" xlink:href="#m16fce7408a" y="256.523565"/>
     <use style="fill:#1f77b4;stroke:#1f77b4;" x="105.163863" xlink:href="#m16fce7408a" y="254.796487"/>
     <use style="fill:#1f77b4;stroke:#1f77b4;" x="106.352851" xlink:href="#m16fce7408a" y="250.47879"/>
     <use style="fill:#1f77b4;stroke:#1f77b4;" x="107.541838" xlink:href="#m16fce7408a" y="251.342329"/>
     <use style="fill:#1f77b4;stroke:#1f77b4;" x="109.028073" xlink:href="#m16fce7408a" y="249.615251"/>
     <use style="fill:#1f77b4;stroke:#1f77b4;" x="110.21706" xlink:href="#m16fce7408a" y="250.47879"/>
     <use style="fill:#1f77b4;stroke:#1f77b4;" x="111.406048" xlink:href="#m16fce7408a" y="247.888172"/>
     <use style="fill:#1f77b4;stroke:#1f77b4;" x="112.595036" xlink:href="#m16fce7408a" y="247.888172"/>
     <use style="fill:#1f77b4;stroke:#1f77b4;" x="114.08127" xlink:href="#m16fce7408a" y="247.024633"/>
     <use style="fill:#1f77b4;stroke:#1f77b4;" x="115.270258" xlink:href="#m16fce7408a" y="247.024633"/>
     <use style="fill:#1f77b4;stroke:#1f77b4;" x="116.756492" xlink:href="#m16fce7408a" y="245.297554"/>
     <use style="fill:#1f77b4;stroke:#1f77b4;" x="117.94548" xlink:href="#m16fce7408a" y="244.434015"/>
     <use style="fill:#1f77b4;stroke:#1f77b4;" x="119.134467" xlink:href="#m16fce7408a" y="243.570476"/>
     <use style="fill:#1f77b4;stroke:#1f77b4;" x="120.620702" xlink:href="#m16fce7408a" y="242.706936"/>
     <use style="fill:#1f77b4;stroke:#1f77b4;" x="121.809689" xlink:href="#m16fce7408a" y="240.979858"/>
     <use style="fill:#1f77b4;stroke:#1f77b4;" x="122.998677" xlink:href="#m16fce7408a" y="240.979858"/>
     <use style="fill:#1f77b4;stroke:#1f77b4;" x="124.484911" xlink:href="#m16fce7408a" y="241.843397"/>
     <use style="fill:#1f77b4;stroke:#1f77b4;" x="125.673899" xlink:href="#m16fce7408a" y="241.843397"/>
     <use style="fill:#1f77b4;stroke:#1f77b4;" x="126.862886" xlink:href="#m16fce7408a" y="239.252779"/>
     <use style="fill:#1f77b4;stroke:#1f77b4;" x="128.349121" xlink:href="#m16fce7408a" y="237.5257"/>
     <use style="fill:#1f77b4;stroke:#1f77b4;" x="129.538108" xlink:href="#m16fce7408a" y="236.662161"/>
     <use style="fill:#1f77b4;stroke:#1f77b4;" x="130.727096" xlink:href="#m16fce7408a" y="235.798622"/>
     <use style="fill:#1f77b4;stroke:#1f77b4;" x="132.21333" xlink:href="#m16fce7408a" y="235.798622"/>
     <use style="fill:#1f77b4;stroke:#1f77b4;" x="133.402318" xlink:href="#m16fce7408a" y="235.798622"/>
     <use style="fill:#1f77b4;stroke:#1f77b4;" x="134.591306" xlink:href="#m16fce7408a" y="235.798622"/>
     <use style="fill:#1f77b4;stroke:#1f77b4;" x="136.07754" xlink:href="#m16fce7408a" y="234.935082"/>
     <use style="fill:#1f77b4;stroke:#1f77b4;" x="137.266528" xlink:href="#m16fce7408a" y="234.071543"/>
     <use style="fill:#1f77b4;stroke:#1f77b4;" x="138.752762" xlink:href="#m16fce7408a" y="233.208004"/>
     <use style="fill:#1f77b4;stroke:#1f77b4;" x="139.94175" xlink:href="#m16fce7408a" y="234.935082"/>
     <use style="fill:#1f77b4;stroke:#1f77b4;" x="141.130737" xlink:href="#m16fce7408a" y="230.617386"/>
     <use style="fill:#1f77b4;stroke:#1f77b4;" x="142.319725" xlink:href="#m16fce7408a" y="229.753847"/>
     <use style="fill:#1f77b4;stroke:#1f77b4;" x="143.805959" xlink:href="#m16fce7408a" y="229.753847"/>
     <use style="fill:#1f77b4;stroke:#1f77b4;" x="144.994947" xlink:href="#m16fce7408a" y="228.890307"/>
     <use style="fill:#1f77b4;stroke:#1f77b4;" x="146.183934" xlink:href="#m16fce7408a" y="228.026768"/>
     <use style="fill:#1f77b4;stroke:#1f77b4;" x="147.670169" xlink:href="#m16fce7408a" y="226.299689"/>
     <use style="fill:#1f77b4;stroke:#1f77b4;" x="148.859156" xlink:href="#m16fce7408a" y="225.43615"/>
     <use style="fill:#1f77b4;stroke:#1f77b4;" x="150.345391" xlink:href="#m16fce7408a" y="223.709071"/>
     <use style="fill:#1f77b4;stroke:#1f77b4;" x="151.534378" xlink:href="#m16fce7408a" y="223.709071"/>
     <use style="fill:#1f77b4;stroke:#1f77b4;" x="152.723366" xlink:href="#m16fce7408a" y="221.981993"/>
     <use style="fill:#1f77b4;stroke:#1f77b4;" x="154.2096" xlink:href="#m16fce7408a" y="221.118454"/>
     <use style="fill:#1f77b4;stroke:#1f77b4;" x="155.398588" xlink:href="#m16fce7408a" y="225.43615"/>
     <use style="fill:#1f77b4;stroke:#1f77b4;" x="156.587575" xlink:href="#m16fce7408a" y="219.391375"/>
     <use style="fill:#1f77b4;stroke:#1f77b4;" x="158.07381" xlink:href="#m16fce7408a" y="216.800757"/>
     <use style="fill:#1f77b4;stroke:#1f77b4;" x="159.262798" xlink:href="#m16fce7408a" y="216.800757"/>
     <use style="fill:#1f77b4;stroke:#1f77b4;" x="160.451785" xlink:href="#m16fce7408a" y="215.937218"/>
     <use style="fill:#1f77b4;stroke:#1f77b4;" x="161.93802" xlink:href="#m16fce7408a" y="214.210139"/>
     <use style="fill:#1f77b4;stroke:#1f77b4;" x="163.127007" xlink:href="#m16fce7408a" y="213.3466"/>
     <use style="fill:#1f77b4;stroke:#1f77b4;" x="164.613242" xlink:href="#m16fce7408a" y="210.755982"/>
     <use style="fill:#1f77b4;stroke:#1f77b4;" x="165.802229" xlink:href="#m16fce7408a" y="209.028903"/>
     <use style="fill:#1f77b4;stroke:#1f77b4;" x="166.991217" xlink:href="#m16fce7408a" y="209.028903"/>
     <use style="fill:#1f77b4;stroke:#1f77b4;" x="168.477451" xlink:href="#m16fce7408a" y="208.165364"/>
     <use style="fill:#1f77b4;stroke:#1f77b4;" x="169.666439" xlink:href="#m16fce7408a" y="205.574746"/>
     <use style="fill:#1f77b4;stroke:#1f77b4;" x="170.855426" xlink:href="#m16fce7408a" y="208.165364"/>
     <use style="fill:#1f77b4;stroke:#1f77b4;" x="172.044414" xlink:href="#m16fce7408a" y="205.574746"/>
     <use style="fill:#1f77b4;stroke:#1f77b4;" x="173.530648" xlink:href="#m16fce7408a" y="204.711207"/>
     <use style="fill:#1f77b4;stroke:#1f77b4;" x="174.719636" xlink:href="#m16fce7408a" y="202.120589"/>
     <use style="fill:#1f77b4;stroke:#1f77b4;" x="176.20587" xlink:href="#m16fce7408a" y="202.120589"/>
     <use style="fill:#1f77b4;stroke:#1f77b4;" x="177.394858" xlink:href="#m16fce7408a" y="199.529971"/>
     <use style="fill:#1f77b4;stroke:#1f77b4;" x="178.583845" xlink:href="#m16fce7408a" y="196.939353"/>
     <use style="fill:#1f77b4;stroke:#1f77b4;" x="180.07008" xlink:href="#m16fce7408a" y="196.075814"/>
     <use style="fill:#1f77b4;stroke:#1f77b4;" x="181.259067" xlink:href="#m16fce7408a" y="196.075814"/>
     <use style="fill:#1f77b4;stroke:#1f77b4;" x="182.448055" xlink:href="#m16fce7408a" y="194.348735"/>
     <use style="fill:#1f77b4;stroke:#1f77b4;" x="183.93429" xlink:href="#m16fce7408a" y="193.485196"/>
     <use style="fill:#1f77b4;stroke:#1f77b4;" x="185.123277" xlink:href="#m16fce7408a" y="191.758117"/>
     <use style="fill:#1f77b4;stroke:#1f77b4;" x="186.609512" xlink:href="#m16fce7408a" y="188.30396"/>
     <use style="fill:#1f77b4;stroke:#1f77b4;" x="187.798499" xlink:href="#m16fce7408a" y="187.440421"/>
     <use style="fill:#1f77b4;stroke:#1f77b4;" x="188.987487" xlink:href="#m16fce7408a" y="189.167499"/>
     <use style="fill:#1f77b4;stroke:#1f77b4;" x="190.176474" xlink:href="#m16fce7408a" y="187.440421"/>
     <use style="fill:#1f77b4;stroke:#1f77b4;" x="191.662709" xlink:href="#m16fce7408a" y="183.986263"/>
     <use style="fill:#1f77b4;stroke:#1f77b4;" x="192.851696" xlink:href="#m16fce7408a" y="184.849803"/>
     <use style="fill:#1f77b4;stroke:#1f77b4;" x="194.040684" xlink:href="#m16fce7408a" y="184.849803"/>
     <use style="fill:#1f77b4;stroke:#1f77b4;" x="195.526918" xlink:href="#m16fce7408a" y="184.849803"/>
     <use style="fill:#1f77b4;stroke:#1f77b4;" x="196.715906" xlink:href="#m16fce7408a" y="182.259185"/>
     <use style="fill:#1f77b4;stroke:#1f77b4;" x="198.20214" xlink:href="#m16fce7408a" y="180.532106"/>
     <use style="fill:#1f77b4;stroke:#1f77b4;" x="199.391128" xlink:href="#m16fce7408a" y="174.487331"/>
     <use style="fill:#1f77b4;stroke:#1f77b4;" x="200.580115" xlink:href="#m16fce7408a" y="167.579016"/>
     <use style="fill:#1f77b4;stroke:#1f77b4;" x="202.06635" xlink:href="#m16fce7408a" y="163.26132"/>
     <use style="fill:#1f77b4;stroke:#1f77b4;" x="203.255337" xlink:href="#m16fce7408a" y="171.033174"/>
     <use style="fill:#1f77b4;stroke:#1f77b4;" x="204.444325" xlink:href="#m16fce7408a" y="174.487331"/>
     <use style="fill:#1f77b4;stroke:#1f77b4;" x="205.633313" xlink:href="#m16fce7408a" y="171.896713"/>
     <use style="fill:#1f77b4;stroke:#1f77b4;" x="207.119547" xlink:href="#m16fce7408a" y="169.306095"/>
     <use style="fill:#1f77b4;stroke:#1f77b4;" x="208.308535" xlink:href="#m16fce7408a" y="168.442556"/>
     <use style="fill:#1f77b4;stroke:#1f77b4;" x="209.794769" xlink:href="#m16fce7408a" y="167.579016"/>
     <use style="fill:#1f77b4;stroke:#1f77b4;" x="210.983757" xlink:href="#m16fce7408a" y="165.851938"/>
     <use style="fill:#1f77b4;stroke:#1f77b4;" x="212.172744" xlink:href="#m16fce7408a" y="167.579016"/>
     <use style="fill:#1f77b4;stroke:#1f77b4;" x="213.658979" xlink:href="#m16fce7408a" y="164.124859"/>
     <use style="fill:#1f77b4;stroke:#1f77b4;" x="214.847966" xlink:href="#m16fce7408a" y="164.124859"/>
     <use style="fill:#1f77b4;stroke:#1f77b4;" x="216.036954" xlink:href="#m16fce7408a" y="152.035309"/>
     <use style="fill:#1f77b4;stroke:#1f77b4;" x="217.523188" xlink:href="#m16fce7408a" y="146.854073"/>
     <use style="fill:#1f77b4;stroke:#1f77b4;" x="218.712176" xlink:href="#m16fce7408a" y="151.17177"/>
     <use style="fill:#1f77b4;stroke:#1f77b4;" x="219.901163" xlink:href="#m16fce7408a" y="159.807163"/>
     <use style="fill:#1f77b4;stroke:#1f77b4;" x="221.387398" xlink:href="#m16fce7408a" y="157.216545"/>
     <use style="fill:#1f77b4;stroke:#1f77b4;" x="222.576385" xlink:href="#m16fce7408a" y="158.080084"/>
     <use style="fill:#1f77b4;stroke:#1f77b4;" x="223.765373" xlink:href="#m16fce7408a" y="156.353005"/>
     <use style="fill:#1f77b4;stroke:#1f77b4;" x="225.251607" xlink:href="#m16fce7408a" y="156.353005"/>
     <use style="fill:#1f77b4;stroke:#1f77b4;" x="226.440595" xlink:href="#m16fce7408a" y="156.353005"/>
     <use style="fill:#1f77b4;stroke:#1f77b4;" x="227.926829" xlink:href="#m16fce7408a" y="155.489466"/>
     <use style="fill:#1f77b4;stroke:#1f77b4;" x="229.115817" xlink:href="#m16fce7408a" y="156.353005"/>
     <use style="fill:#1f77b4;stroke:#1f77b4;" x="230.304805" xlink:href="#m16fce7408a" y="154.625927"/>
     <use style="fill:#1f77b4;stroke:#1f77b4;" x="231.791039" xlink:href="#m16fce7408a" y="156.353005"/>
     <use style="fill:#1f77b4;stroke:#1f77b4;" x="232.980027" xlink:href="#m16fce7408a" y="169.306095"/>
     <use style="fill:#1f77b4;stroke:#1f77b4;" x="234.169014" xlink:href="#m16fce7408a" y="155.489466"/>
     <use style="fill:#1f77b4;stroke:#1f77b4;" x="235.655249" xlink:href="#m16fce7408a" y="153.762388"/>
     <use style="fill:#1f77b4;stroke:#1f77b4;" x="236.844236" xlink:href="#m16fce7408a" y="154.625927"/>
     <use style="fill:#1f77b4;stroke:#1f77b4;" x="238.033224" xlink:href="#m16fce7408a" y="154.625927"/>
     <use style="fill:#1f77b4;stroke:#1f77b4;" x="239.519458" xlink:href="#m16fce7408a" y="155.489466"/>
     <use style="fill:#1f77b4;stroke:#1f77b4;" x="240.708446" xlink:href="#m16fce7408a" y="154.625927"/>
     <use style="fill:#1f77b4;stroke:#1f77b4;" x="241.897433" xlink:href="#m16fce7408a" y="153.762388"/>
     <use style="fill:#1f77b4;stroke:#1f77b4;" x="243.383668" xlink:href="#m16fce7408a" y="153.762388"/>
     <use style="fill:#1f77b4;stroke:#1f77b4;" x="244.572655" xlink:href="#m16fce7408a" y="152.035309"/>
     <use style="fill:#1f77b4;stroke:#1f77b4;" x="245.761643" xlink:href="#m16fce7408a" y="152.035309"/>
     <use style="fill:#1f77b4;stroke:#1f77b4;" x="247.247877" xlink:href="#m16fce7408a" y="151.17177"/>
     <use style="fill:#1f77b4;stroke:#1f77b4;" x="248.436865" xlink:href="#m16fce7408a" y="149.444691"/>
     <use style="fill:#1f77b4;stroke:#1f77b4;" x="249.625853" xlink:href="#m16fce7408a" y="149.444691"/>
     <use style="fill:#1f77b4;stroke:#1f77b4;" x="251.112087" xlink:href="#m16fce7408a" y="149.444691"/>
     <use style="fill:#1f77b4;stroke:#1f77b4;" x="252.301075" xlink:href="#m16fce7408a" y="147.717612"/>
     <use style="fill:#1f77b4;stroke:#1f77b4;" x="253.490062" xlink:href="#m16fce7408a" y="147.717612"/>
     <use style="fill:#1f77b4;stroke:#1f77b4;" x="254.976297" xlink:href="#m16fce7408a" y="148.581152"/>
     <use style="fill:#1f77b4;stroke:#1f77b4;" x="256.165284" xlink:href="#m16fce7408a" y="146.854073"/>
     <use style="fill:#1f77b4;stroke:#1f77b4;" x="257.651519" xlink:href="#m16fce7408a" y="145.126995"/>
     <use style="fill:#1f77b4;stroke:#1f77b4;" x="258.840506" xlink:href="#m16fce7408a" y="145.126995"/>
     <use style="fill:#1f77b4;stroke:#1f77b4;" x="260.029494" xlink:href="#m16fce7408a" y="144.263455"/>
     <use style="fill:#1f77b4;stroke:#1f77b4;" x="261.515728" xlink:href="#m16fce7408a" y="143.399916"/>
     <use style="fill:#1f77b4;stroke:#1f77b4;" x="262.704716" xlink:href="#m16fce7408a" y="139.945759"/>
     <use style="fill:#1f77b4;stroke:#1f77b4;" x="263.893703" xlink:href="#m16fce7408a" y="139.945759"/>
     <use style="fill:#1f77b4;stroke:#1f77b4;" x="265.082691" xlink:href="#m16fce7408a" y="139.945759"/>
     <use style="fill:#1f77b4;stroke:#1f77b4;" x="266.568925" xlink:href="#m16fce7408a" y="140.809298"/>
     <use style="fill:#1f77b4;stroke:#1f77b4;" x="267.757913" xlink:href="#m16fce7408a" y="139.945759"/>
     <use style="fill:#1f77b4;stroke:#1f77b4;" x="269.244147" xlink:href="#m16fce7408a" y="136.491601"/>
     <use style="fill:#1f77b4;stroke:#1f77b4;" x="270.433135" xlink:href="#m16fce7408a" y="137.355141"/>
     <use style="fill:#1f77b4;stroke:#1f77b4;" x="271.622123" xlink:href="#m16fce7408a" y="139.082219"/>
     <use style="fill:#1f77b4;stroke:#1f77b4;" x="273.108357" xlink:href="#m16fce7408a" y="139.082219"/>
     <use style="fill:#1f77b4;stroke:#1f77b4;" x="274.297345" xlink:href="#m16fce7408a" y="137.355141"/>
     <use style="fill:#1f77b4;stroke:#1f77b4;" x="275.486332" xlink:href="#m16fce7408a" y="136.491601"/>
     <use style="fill:#1f77b4;stroke:#1f77b4;" x="276.972567" xlink:href="#m16fce7408a" y="136.491601"/>
     <use style="fill:#1f77b4;stroke:#1f77b4;" x="278.161554" xlink:href="#m16fce7408a" y="138.21868"/>
     <use style="fill:#1f77b4;stroke:#1f77b4;" x="279.647789" xlink:href="#m16fce7408a" y="136.491601"/>
     <use style="fill:#1f77b4;stroke:#1f77b4;" x="280.836776" xlink:href="#m16fce7408a" y="136.491601"/>
     <use style="fill:#1f77b4;stroke:#1f77b4;" x="282.025764" xlink:href="#m16fce7408a" y="133.900984"/>
     <use style="fill:#1f77b4;stroke:#1f77b4;" x="283.214751" xlink:href="#m16fce7408a" y="133.900984"/>
     <use style="fill:#1f77b4;stroke:#1f77b4;" x="284.700986" xlink:href="#m16fce7408a" y="132.173905"/>
     <use style="fill:#1f77b4;stroke:#1f77b4;" x="285.889973" xlink:href="#m16fce7408a" y="131.310366"/>
     <use style="fill:#1f77b4;stroke:#1f77b4;" x="287.376208" xlink:href="#m16fce7408a" y="130.446826"/>
     <use style="fill:#1f77b4;stroke:#1f77b4;" x="288.565195" xlink:href="#m16fce7408a" y="132.173905"/>
     <use style="fill:#1f77b4;stroke:#1f77b4;" x="289.754183" xlink:href="#m16fce7408a" y="132.173905"/>
     <use style="fill:#1f77b4;stroke:#1f77b4;" x="291.240417" xlink:href="#m16fce7408a" y="131.310366"/>
     <use style="fill:#1f77b4;stroke:#1f77b4;" x="292.429405" xlink:href="#m16fce7408a" y="133.037444"/>
     <use style="fill:#1f77b4;stroke:#1f77b4;" x="293.618393" xlink:href="#m16fce7408a" y="133.037444"/>
     <use style="fill:#1f77b4;stroke:#1f77b4;" x="295.104627" xlink:href="#m16fce7408a" y="132.173905"/>
     <use style="fill:#1f77b4;stroke:#1f77b4;" x="296.293615" xlink:href="#m16fce7408a" y="137.355141"/>
     <use style="fill:#1f77b4;stroke:#1f77b4;" x="297.482602" xlink:href="#m16fce7408a" y="120.947894"/>
     <use style="fill:#1f77b4;stroke:#1f77b4;" x="298.968837" xlink:href="#m16fce7408a" y="126.992669"/>
     <use style="fill:#1f77b4;stroke:#1f77b4;" x="300.157824" xlink:href="#m16fce7408a" y="127.856208"/>
     <use style="fill:#1f77b4;stroke:#1f77b4;" x="301.346812" xlink:href="#m16fce7408a" y="128.719748"/>
     <use style="fill:#1f77b4;stroke:#1f77b4;" x="302.833046" xlink:href="#m16fce7408a" y="128.719748"/>
     <use style="fill:#1f77b4;stroke:#1f77b4;" x="304.022034" xlink:href="#m16fce7408a" y="128.719748"/>
     <use style="fill:#1f77b4;stroke:#1f77b4;" x="305.211021" xlink:href="#m16fce7408a" y="128.719748"/>
     <use style="fill:#1f77b4;stroke:#1f77b4;" x="306.697256" xlink:href="#m16fce7408a" y="128.719748"/>
     <use style="fill:#1f77b4;stroke:#1f77b4;" x="307.886243" xlink:href="#m16fce7408a" y="126.992669"/>
     <use style="fill:#1f77b4;stroke:#1f77b4;" x="309.372478" xlink:href="#m16fce7408a" y="126.12913"/>
     <use style="fill:#1f77b4;stroke:#1f77b4;" x="310.561465" xlink:href="#m16fce7408a" y="123.538512"/>
     <use style="fill:#1f77b4;stroke:#1f77b4;" x="311.750453" xlink:href="#m16fce7408a" y="133.037444"/>
     <use style="fill:#1f77b4;stroke:#1f77b4;" x="312.93944" xlink:href="#m16fce7408a" y="126.12913"/>
     <use style="fill:#1f77b4;stroke:#1f77b4;" x="314.425675" xlink:href="#m16fce7408a" y="126.12913"/>
     <use style="fill:#1f77b4;stroke:#1f77b4;" x="315.614663" xlink:href="#m16fce7408a" y="125.26559"/>
     <use style="fill:#1f77b4;stroke:#1f77b4;" x="316.80365" xlink:href="#m16fce7408a" y="126.992669"/>
     <use style="fill:#1f77b4;stroke:#1f77b4;" x="318.289885" xlink:href="#m16fce7408a" y="125.26559"/>
     <use style="fill:#1f77b4;stroke:#1f77b4;" x="319.478872" xlink:href="#m16fce7408a" y="122.674973"/>
     <use style="fill:#1f77b4;stroke:#1f77b4;" x="320.965107" xlink:href="#m16fce7408a" y="120.947894"/>
     <use style="fill:#1f77b4;stroke:#1f77b4;" x="322.154094" xlink:href="#m16fce7408a" y="120.947894"/>
     <use style="fill:#1f77b4;stroke:#1f77b4;" x="323.343082" xlink:href="#m16fce7408a" y="118.357276"/>
     <use style="fill:#1f77b4;stroke:#1f77b4;" x="324.829316" xlink:href="#m16fce7408a" y="120.084355"/>
     <use style="fill:#1f77b4;stroke:#1f77b4;" x="326.018304" xlink:href="#m16fce7408a" y="117.493737"/>
     <use style="fill:#1f77b4;stroke:#1f77b4;" x="327.207291" xlink:href="#m16fce7408a" y="116.630197"/>
     <use style="fill:#1f77b4;stroke:#1f77b4;" x="328.693526" xlink:href="#m16fce7408a" y="115.766658"/>
     <use style="fill:#1f77b4;stroke:#1f77b4;" x="329.882513" xlink:href="#m16fce7408a" y="114.903119"/>
     <use style="fill:#1f77b4;stroke:#1f77b4;" x="331.071501" xlink:href="#m16fce7408a" y="115.766658"/>
     <use style="fill:#1f77b4;stroke:#1f77b4;" x="332.557735" xlink:href="#m16fce7408a" y="113.17604"/>
     <use style="fill:#1f77b4;stroke:#1f77b4;" x="333.746723" xlink:href="#m16fce7408a" y="113.17604"/>
     <use style="fill:#1f77b4;stroke:#1f77b4;" x="334.93571" xlink:href="#m16fce7408a" y="114.039579"/>
     <use style="fill:#1f77b4;stroke:#1f77b4;" x="336.421945" xlink:href="#m16fce7408a" y="113.17604"/>
     <use style="fill:#1f77b4;stroke:#1f77b4;" x="337.610933" xlink:href="#m16fce7408a" y="113.17604"/>
     <use style="fill:#1f77b4;stroke:#1f77b4;" x="338.79992" xlink:href="#m16fce7408a" y="110.585422"/>
     <use style="fill:#1f77b4;stroke:#1f77b4;" x="340.286155" xlink:href="#m16fce7408a" y="108.858344"/>
     <use style="fill:#1f77b4;stroke:#1f77b4;" x="341.475142" xlink:href="#m16fce7408a" y="111.448962"/>
     <use style="fill:#1f77b4;stroke:#1f77b4;" x="342.66413" xlink:href="#m16fce7408a" y="106.267726"/>
     <use style="fill:#1f77b4;stroke:#1f77b4;" x="344.150364" xlink:href="#m16fce7408a" y="105.404186"/>
     <use style="fill:#1f77b4;stroke:#1f77b4;" x="345.339352" xlink:href="#m16fce7408a" y="105.404186"/>
     <use style="fill:#1f77b4;stroke:#1f77b4;" x="346.825586" xlink:href="#m16fce7408a" y="105.404186"/>
     <use style="fill:#1f77b4;stroke:#1f77b4;" x="348.014574" xlink:href="#m16fce7408a" y="102.813568"/>
     <use style="fill:#1f77b4;stroke:#1f77b4;" x="349.203561" xlink:href="#m16fce7408a" y="103.677108"/>
     <use style="fill:#1f77b4;stroke:#1f77b4;" x="350.689796" xlink:href="#m16fce7408a" y="103.677108"/>
     <use style="fill:#1f77b4;stroke:#1f77b4;" x="351.878783" xlink:href="#m16fce7408a" y="101.950029"/>
     <use style="fill:#1f77b4;stroke:#1f77b4;" x="353.067771" xlink:href="#m16fce7408a" y="101.08649"/>
     <use style="fill:#1f77b4;stroke:#1f77b4;" x="354.554005" xlink:href="#m16fce7408a" y="102.813568"/>
     <use style="fill:#1f77b4;stroke:#1f77b4;" x="355.742993" xlink:href="#m16fce7408a" y="101.950029"/>
     <use style="fill:#1f77b4;stroke:#1f77b4;" x="357.229227" xlink:href="#m16fce7408a" y="100.222951"/>
     <use style="fill:#1f77b4;stroke:#1f77b4;" x="358.418215" xlink:href="#m16fce7408a" y="97.632333"/>
     <use style="fill:#1f77b4;stroke:#1f77b4;" x="359.607202" xlink:href="#m16fce7408a" y="97.632333"/>
     <use style="fill:#1f77b4;stroke:#1f77b4;" x="360.79619" xlink:href="#m16fce7408a" y="96.768793"/>
     <use style="fill:#1f77b4;stroke:#1f77b4;" x="362.282425" xlink:href="#m16fce7408a" y="93.314636"/>
     <use style="fill:#1f77b4;stroke:#1f77b4;" x="363.471412" xlink:href="#m16fce7408a" y="95.905254"/>
     <use style="fill:#1f77b4;stroke:#1f77b4;" x="364.6604" xlink:href="#m16fce7408a" y="93.314636"/>
     <use style="fill:#1f77b4;stroke:#1f77b4;" x="366.146634" xlink:href="#m16fce7408a" y="91.587557"/>
     <use style="fill:#1f77b4;stroke:#1f77b4;" x="367.335622" xlink:href="#m16fce7408a" y="92.451097"/>
     <use style="fill:#1f77b4;stroke:#1f77b4;" x="368.821856" xlink:href="#m16fce7408a" y="91.587557"/>
     <use style="fill:#1f77b4;stroke:#1f77b4;" x="370.010844" xlink:href="#m16fce7408a" y="89.860479"/>
     <use style="fill:#1f77b4;stroke:#1f77b4;" x="371.199831" xlink:href="#m16fce7408a" y="90.724018"/>
     <use style="fill:#1f77b4;stroke:#1f77b4;" x="372.686066" xlink:href="#m16fce7408a" y="88.1334"/>
     <use style="fill:#1f77b4;stroke:#1f77b4;" x="373.875053" xlink:href="#m16fce7408a" y="82.952164"/>
     <use style="fill:#1f77b4;stroke:#1f77b4;" x="375.064041" xlink:href="#m16fce7408a" y="88.1334"/>
     <use style="fill:#1f77b4;stroke:#1f77b4;" x="376.253028" xlink:href="#m16fce7408a" y="86.406322"/>
     <use style="fill:#1f77b4;stroke:#1f77b4;" x="377.739263" xlink:href="#m16fce7408a" y="83.815704"/>
     <use style="fill:#1f77b4;stroke:#1f77b4;" x="378.92825" xlink:href="#m16fce7408a" y="82.088625"/>
     <use style="fill:#1f77b4;stroke:#1f77b4;" x="380.414485" xlink:href="#m16fce7408a" y="79.498007"/>
     <use style="fill:#1f77b4;stroke:#1f77b4;" x="381.603472" xlink:href="#m16fce7408a" y="78.634468"/>
     <use style="fill:#1f77b4;stroke:#1f77b4;" x="382.79246" xlink:href="#m16fce7408a" y="73.453232"/>
     <use style="fill:#1f77b4;stroke:#1f77b4;" x="384.278694" xlink:href="#m16fce7408a" y="77.770929"/>
     <use style="fill:#1f77b4;stroke:#1f77b4;" x="385.467682" xlink:href="#m16fce7408a" y="76.04385"/>
     <use style="fill:#1f77b4;stroke:#1f77b4;" x="386.65667" xlink:href="#m16fce7408a" y="74.316771"/>
     <use style="fill:#1f77b4;stroke:#1f77b4;" x="388.142904" xlink:href="#m16fce7408a" y="72.589693"/>
     <use style="fill:#1f77b4;stroke:#1f77b4;" x="389.331892" xlink:href="#m16fce7408a" y="70.862614"/>
     <use style="fill:#1f77b4;stroke:#1f77b4;" x="390.520879" xlink:href="#m16fce7408a" y="70.862614"/>
     <use style="fill:#1f77b4;stroke:#1f77b4;" x="392.007114" xlink:href="#m16fce7408a" y="69.135535"/>
     <use style="fill:#1f77b4;stroke:#1f77b4;" x="393.196101" xlink:href="#m16fce7408a" y="66.544918"/>
     <use style="fill:#1f77b4;stroke:#1f77b4;" x="394.385089" xlink:href="#m16fce7408a" y="63.9543"/>
     <use style="fill:#1f77b4;stroke:#1f77b4;" x="395.871323" xlink:href="#m16fce7408a" y="64.817839"/>
     <use style="fill:#1f77b4;stroke:#1f77b4;" x="397.060311" xlink:href="#m16fce7408a" y="59.636603"/>
     <use style="fill:#1f77b4;stroke:#1f77b4;" x="398.249298" xlink:href="#m16fce7408a" y="63.09076"/>
     <use style="fill:#1f77b4;stroke:#1f77b4;" x="399.735533" xlink:href="#m16fce7408a" y="63.09076"/>
     <use style="fill:#1f77b4;stroke:#1f77b4;" x="400.92452" xlink:href="#m16fce7408a" y="64.817839"/>
     <use style="fill:#1f77b4;stroke:#1f77b4;" x="402.410755" xlink:href="#m16fce7408a" y="60.500142"/>
     <use style="fill:#1f77b4;stroke:#1f77b4;" x="403.599742" xlink:href="#m16fce7408a" y="59.636603"/>
     <use style="fill:#1f77b4;stroke:#1f77b4;" x="404.78873" xlink:href="#m16fce7408a" y="63.09076"/>
     <use style="fill:#1f77b4;stroke:#1f77b4;" x="406.274964" xlink:href="#m16fce7408a" y="76.04385"/>
     <use style="fill:#1f77b4;stroke:#1f77b4;" x="407.463952" xlink:href="#m16fce7408a" y="75.180311"/>
     <use style="fill:#1f77b4;stroke:#1f77b4;" x="408.65294" xlink:href="#m16fce7408a" y="73.453232"/>
     <use style="fill:#1f77b4;stroke:#1f77b4;" x="410.139174" xlink:href="#m16fce7408a" y="64.817839"/>
     <use style="fill:#1f77b4;stroke:#1f77b4;" x="411.328162" xlink:href="#m16fce7408a" y="56.182446"/>
     <use style="fill:#1f77b4;stroke:#1f77b4;" x="412.517149" xlink:href="#m16fce7408a" y="47.547053"/>
     <use style="fill:#1f77b4;stroke:#1f77b4;" x="414.003384" xlink:href="#m16fce7408a" y="44.956435"/>
     <use style="fill:#1f77b4;stroke:#1f77b4;" x="415.192371" xlink:href="#m16fce7408a" y="41.502278"/>
     <use style="fill:#1f77b4;stroke:#1f77b4;" x="416.381359" xlink:href="#m16fce7408a" y="39.775199"/>
     <use style="fill:#1f77b4;stroke:#1f77b4;" x="417.867593" xlink:href="#m16fce7408a" y="40.638738"/>
     <use style="fill:#1f77b4;stroke:#1f77b4;" x="419.056581" xlink:href="#m16fce7408a" y="41.502278"/>
     <use style="fill:#1f77b4;stroke:#1f77b4;" x="420.245568" xlink:href="#m16fce7408a" y="40.638738"/>
     <use style="fill:#1f77b4;stroke:#1f77b4;" x="421.731803" xlink:href="#m16fce7408a" y="37.184581"/>
     <use style="fill:#1f77b4;stroke:#1f77b4;" x="422.92079" xlink:href="#m16fce7408a" y="34.593963"/>
     <use style="fill:#1f77b4;stroke:#1f77b4;" x="424.109778" xlink:href="#m16fce7408a" y="32.866885"/>
     <use style="fill:#1f77b4;stroke:#1f77b4;" x="425.596012" xlink:href="#m16fce7408a" y="32.003345"/>
     <use style="fill:#1f77b4;stroke:#1f77b4;" x="426.785" xlink:href="#m16fce7408a" y="29.412727"/>
    </g>
   </g>
   <g id="patch_3">
    <path d="M 75.35 284.2 
L 75.35 17.28 
" style="fill:none;stroke:#000000;stroke-linecap:square;stroke-linejoin:miter;stroke-width:0.8;"/>
   </g>
   <g id="patch_4">
    <path d="M 443.52 284.2 
L 443.52 17.28 
" style="fill:none;stroke:#000000;stroke-linecap:square;stroke-linejoin:miter;stroke-width:0.8;"/>
   </g>
   <g id="patch_5">
    <path d="M 75.35 284.2 
L 443.52 284.2 
" style="fill:none;stroke:#000000;stroke-linecap:square;stroke-linejoin:miter;stroke-width:0.8;"/>
   </g>
   <g id="patch_6">
    <path d="M 75.35 17.28 
L 443.52 17.28 
" style="fill:none;stroke:#000000;stroke-linecap:square;stroke-linejoin:miter;stroke-width:0.8;"/>
   </g>
   <g id="legend_1">
    <g id="patch_7">
     <path d="M 86.55 53.565 
L 173.79 53.565 
Q 176.99 53.565 176.99 50.365 
L 176.99 28.48 
Q 176.99 25.28 173.79 25.28 
L 86.55 25.28 
Q 83.35 25.28 83.35 28.48 
L 83.35 50.365 
Q 83.35 53.565 86.55 53.565 
z
" style="fill:#ffffff;opacity:0.8;stroke:#cccccc;stroke-linejoin:miter;"/>
    </g>
    <g id="line2d_14"/>
    <g id="line2d_15">
     <g>
      <use style="fill:#1f77b4;stroke:#1f77b4;" x="105.75" xlink:href="#m16fce7408a" y="38.2375"/>
     </g>
    </g>
    <g id="text_15">
     <!-- data -->
     <g transform="translate(134.55 43.8375)scale(0.16 -0.16)">
      <use xlink:href="#DejaVuSans-100"/>
      <use x="63.476562" xlink:href="#DejaVuSans-97"/>
      <use x="124.755859" xlink:href="#DejaVuSans-116"/>
      <use x="163.964844" xlink:href="#DejaVuSans-97"/>
     </g>
    </g>
   </g>
  </g>
 </g>
 <defs>
  <clipPath id="pcdc85a3af4">
   <rect height="266.92" width="368.17" x="75.35" y="17.28"/>
  </clipPath>
 </defs>
</svg>
